ML Workflow with tidymodels – HydroSimul
…
3.6 Model Fitting

We can now train the full preprocessing + modeling pipeline using fit():

fit_Flight <- 
  wflow_Flight |> 
  fit(data = df_Train)

Inspect model coefficients:

fit_Flight |> 
  extract_fit_parsnip() |> 
  tidy()

# A tibble: 157 × 5
   term                         estimate std.error statistic  p.value
   <chr>                           <dbl>     <dbl>     <dbl>    <dbl>
 1 (Intercept)                   7.28    2.73           2.67 7.64e- 3
 2 dep_time                     -0.00166 0.0000141   -118.   0       
 3 air_time                     -0.0440  0.000563     -78.2  0       
 4 distance                      0.00507 0.00150        3.38 7.32e- 4
 5 date_USChristmasDay           1.33    0.177          7.49 6.93e-14
 6 date_USColumbusDay            0.724   0.170          4.25 2.13e- 5
 7 date_USCPulaskisBirthday      0.807   0.139          5.80 6.57e- 9
 8 date_USDecorationMemorialDay  0.585   0.117          4.98 6.32e- 7
 9 date_USElectionDay            0.948   0.190          4.98 6.25e- 7
10 date_USGoodFriday             1.25    0.167          7.45 9.40e-14
# ℹ 147 more rows
…
